{
  "row": {
		"scope": "html",
		"prefix": "d-row",
		"body": [
			"<d-row>",
			"  <d-col xs12$1>",
			"    $2",
			"  </d-col>",
			"</d-row>"
		],
		"description": "Flex Row"
	},
  "col": {
		"scope": "html",
		"prefix": "d-col",
		"body": [
			"<d-col xs12$1>",
			"  $2",
			"</d-col>"
		],
		"description": "Flex Column"
	}
}
